<?xml version="1.0" encoding="UTF-8" standalone="no"?>
<svg
   xmlns:dc="http://purl.org/dc/elements/1.1/"
   xmlns:cc="http://creativecommons.org/ns#"
   xmlns:rdf="http://www.w3.org/1999/02/22-rdf-syntax-ns#"
   xmlns:svg="http://www.w3.org/2000/svg"
   xmlns="http://www.w3.org/2000/svg"
   xmlns:sodipodi="http://sodipodi.sourceforge.net/DTD/sodipodi-0.dtd"
   xmlns:inkscape="http://www.inkscape.org/namespaces/inkscape"
   viewBox="0 0 197.28 233.09002"
   version="1.1"
   id="svg16"
   sodipodi:docname="scaleway_logo.svg"
   width="197.28"
   height="233.09001"
   inkscape:version="0.92.4 (5da689c313, 2019-01-14)">
  <metadata
     id="metadata20">
    <rdf:RDF>
      <cc:Work
         rdf:about="">
        <dc:format>image/svg+xml</dc:format>
        <dc:type
           rdf:resource="http://purl.org/dc/dcmitype/StillImage" />
        <dc:title></dc:title>
      </cc:Work>
    </rdf:RDF>
  </metadata>
  <sodipodi:namedview
     pagecolor="#ffffff"
     bordercolor="#666666"
     borderopacity="1"
     objecttolerance="10"
     gridtolerance="10"
     guidetolerance="10"
     inkscape:pageopacity="0"
     inkscape:pageshadow="2"
     inkscape:window-width="1779"
     inkscape:window-height="1152"
     id="namedview18"
     showgrid="false"
     fit-margin-top="0"
     fit-margin-left="0"
     fit-margin-right="0"
     fit-margin-bottom="0"
     inkscape:zoom="0.36587393"
     inkscape:cx="-139.39228"
     inkscape:cy="116.545"
     inkscape:window-x="0"
     inkscape:window-y="27"
     inkscape:window-maximized="0"
     inkscape:current-layer="svg16" />
  <defs
     id="defs4">
    <style
       id="style2">.cls-1{fill:#510098}</style>
  </defs>
  <path
     class="cls-1"
     d="m 90.21,179.94001 h 38.41 a 17.42,17.42 0 0 0 15.31,-16.45 v -55.41 a 13.32,13.32 0 1 0 -26.64,0 v 35.21 a 10,10 0 0 1 -10,10 H 89.88 a 13.32,13.32 0 0 0 -13.31,13.5 13.53,13.53 0 0 0 13.64,13.15 z m 17.32,-126.5 H 69.11 a 17.42,17.42 0 0 0 -15.31,16.45 v 55.4 a 13.32,13.32 0 1 0 26.64,0 v -35.2 a 10,10 0 0 1 10,-10 h 17.4 a 13.32,13.32 0 0 0 13.31,-13.5 13.52,13.52 0 0 0 -13.62,-13.15 z"
     id="path6"
     inkscape:connector-curvature="0"
     style="fill:#510098" />
  <path
     class="cls-1"
     d="m 114,26.64001 c 31.24723,0.03306 56.57142,25.352774 56.61,56.6 v 108.86 c -1.29712,7.54248 -7.36006,13.35804 -14.95,14.34 H 83.27 c -31.275885,0 -56.63,-25.35411 -56.63,-56.63 v -105.66 c 0,-9.670506 7.839494,-17.51 17.51,-17.51 H 114 M 114,9.8212927e-6 H 44.15 C 19.766628,9.8212927e-6 0,19.766638 0,44.15001 v 105.67 c 0,45.98875 37.281249,83.27 83.27,83.27 H 157 c 21.10271,-1.72902 38.00504,-18.19915 40.28,-39.25 v -110.6 C 197.28001,37.252202 159.9878,-0.02208908 114,9.8212927e-6 Z"
     id="path8"
     inkscape:connector-curvature="0"
     style="fill:#510098"
     sodipodi:nodetypes="ccccssssccssssccsc" />
</svg>
